Parkes Shire Council	65024;65068;65026;65062
Balranald Shire Council	49048;49002
Sydney Coastal Councils Group Inc	66098;66061;66037;66062;66195;66095;66212;66006
Moree Plains Shire Council	53000;53115;53072;52006;53048;53038;53027;52065;53091;53071;53116;53070
City of Lithgow Council	63164;63224;63226;63062
North Sydney Council	66061
Wingecarribee Shire Council	68239;68045;68195;68098
Riverina Eastern Regional Organisation of Councils (REROC)	73127;72040;74114;72150;72151;74127;74241
Murrumbidgee Council	74055;74040;74198;74124
Narrandera Shire Council	74221;74201;74197;74083;74082;74148
Canberra Region Joint Organisation	70030;70354;70294;55101;70234;70011;70035
Upper Lachlan Shire Council	70043
Coolamon Shire Council	74033
Muswellbrook Shire Council	61004;61018;61374;61053;61305;61192;61168
Waverley Council	66005
Nambucca Shire Council	59018
Lockhart Shire Council	74194;70354;74064
Oberon Council	63154;63155;63036;63108;63265;63302;63213;63038;63122;63030;63158;63063;63293;63194;63037
Lachlan Shire Council	50007;50052;50102;50026;50013;50014;50054;50059;50137
Cowra Shire Council	65111;73097;63229;65091;63021;63023;63022
Coffs Harbour City Council	59010;59040;59151
Shoalhaven City Council	68105;68076;68072;68048;68213
Hawkesbury River County Council	67054
Riverina and Murray Regional Organisation of Councils (RAMROC)	72168;72057;72097;72059;72160;72001;72146
Ku-ring-gai Council	66120
Griffith City Council	75174;68218;75041
Mosman Municipal Council	66184
Blayney Shire Council	63086;63010;63279
Bathurst Regional Council	63187;63305;63190;63004;63306;63287;63005;63291
Liverpool Plains Shire Council	55256;55323;55240;55241;55049;55197;55255
Wollondilly Shire Council	68052;68158;68152
Lake Macquarie City Council	74179
Uralla Shire Council	56063;56232;55085;56045;56028;56034;56042;57091;57029;56065
Burwood Council	66091;66113
Kempsey Shire Council	59043
Gilgandra Shire Council	64053;51051;51139;51160;64024;51018
Narrabri Shire Council	54038;54151;54126;54120;54127;53103;53083;53026;54149;53030
Wagga Wagga City Council	73127;72040;74114;72150;72151;74127;74241
Central Murray County Council	74093;74023;74253;74042
Port Macquarie-Hastings Council	60139;60076;60026
Glen Innes Severn Council	56193;57082;56115;56096;57076;56103;56011;56013;56105;56012;56051;56104;56243;54068
Lismore City Council	58214;58037;58071;58221
Warrumbungle Shire Council	64055;64046;64017;53082;64016;64041;64008;64040;64027;64033;64039
Orange City Council	63253;63244;63017;63231;65038;63066;63067;63172;63124;63018;50070;63113;68050;63303;63065;63254;63001
Georges River Council	66069;66029
Mid-Western Regional Council	62101;62021;62104
Penrith City Council	67113;67096;67018
Northern Sydney Regional Organisation of Councils (NSROC)	66061
Rous County Council	58214;58037;58071;58221
South Sydney Regional Organisation of Councils (SSROC)	66098;66061;66037;66062;66195;66095;66212;66006
Edward River Council	74086;74258;74039;74128;74265;74270;75168;75082
Canterbury Bankstown Council 	66003;66137
Tamworth Regional Council	55279;55221;55330;55166;55152;55222;55132;55151;55333;55156;55332;55327;55325;55054
Ballina Shire Council	58128;58001;58205;58198
Macarthur Regional Organisation of Councils (MACROC)	68014;68160;68257;68230;68081;68015
Bogan Shire Council	51033;51031;51016;51069;51095;51029;51164;51039;51151;51118;51028;51150
Port Stephens Council	61076;61031;61064
Cessnock City Council	61260;61326;61242;61009
Bayside Council	63104;66074;53090;70207
Weddin Shire Council	65109;73014;65093;73110
Inverell Shire Council	54072;56107;56116;54058;54077;56237;54064;56242;54133;56017;54078;56209;56108;56018;54158;54001
Randwick City Council	66052;66073
Shellharbour City Council	68171;68241;68074;68153;68069;68188
Byron Shire Council	58114;58040
Berrigan Shire Council	74255;74009
Tweed Shire Council	58042;58020;58186;58158
Albury City Council	72168;72057;72097;72059;72160;72001;72146
Sutherland Shire Council	66177;66060
Inner West Council	66000
Bellingen Shire Council	59130;59001;59134;59094
Broken Hill City Council	46107;47104;47061;46050;46117;47062;46015;46134;47048;47007;47049;47056;47070;46033;47014;46013;46016;47037;46027;47031;47102;47010
Gunnedah Shire Council	55202;55272;55220;55023;55024
Willoughby City Council	66011;66012;66010
Campbelltown City Council	68014;68160;68257;68230;68081;68015
Cootamundra-Gundagai Regional Council	73118;73085;73022;73142;73009
Armidale Regional Council	56003;56068;57106;56070;56219;56002;56069;57048;57092;57034;57088;57007;56191;56037;56238
Central Darling Shire Council	46119;46004;46024;47036;47097;46110;46012;46022;46043;46120;46017;46125;46030;47005;47096;47098;46122;46121
Narromine Shire Council	51037;51147;51115;51123;51152;50000;51005
Mid North Coast Regional Organisation of Councils (MIDROC)	59043
Murray River Council	74129;74070;74069
Cumberland Council	66038;67070
Castlereagh-Macquarie County Council	51015;48036;51162;52015;48203;52088;48231;52026
Lane Cove Municipal Council	66061
Wollongong City Council	68171;68241;68074;68153;68069;68188
The Hills Shire Council	67109
The Council of the Shire of Hornsby	66028;66106;66159;67065;66107;66027
Brewarrina Shire Council	48072;48109;48173;48176;48098;48015;48000;48238;48180
Walgett Shire Council	51015;48036;51162;52015;48203;52088;48231;52026
Dungog Shire Council	61361;61332;61170;61122;61364;61106;61227;61017;61415
New England Tablelands (Noxious Plants) County Council	56003;56068;57106;56070;56219;56002;56069;57048;57092;57034;57088;57007;56191;56037;56238
Richmond Valley Council	58063;58208
Northern Beaches Council	66141
Clarence Valley Council	58024;58189;58130;58102;58231;58161;59105;58076;58077;58025
Central NSW Councils (CENTROC)	65016;65065;65104;50135;65039;65113;65103;60130;65114
The Council of the Municipality of Hunters Hill	66109;66108
Central Tablelands Water Council	63086;63010;63279
The Council of the Municipality of Kiama	68252;68242;68038
Liverpool City Council	67013;66025;67035;67020
Hay Shire Council	75047;75065;75018;75173;75031;75134;75023;75019;75035;75137;75175
Central Coast Council	61384;61381;61382;61386;61083;61380;61385
Camden Council	68011;68192;68007;68250;68012;68225
Cabonne Council	65023;65041;62106;62000;62073
Bland Shire Council	50130;50044;50017;74020;50103
Snowy Monaro Regional Council	70217;70161;70023;70302;70270;71016;70044;70278;70054;70094;70017;70258;70356;70155
Bourke Shire Council	48172;48137;48013;48245;48133;48205;48242;48049;48239
Northern Rivers Regional Organisation of Councils (NOROC)	58128;58001;58205;58198
Namoi Regional Organisation of Councils (Namoi ROC)	55279;55221;55330;55166;55152;55222;55132;55151;55333;55156;55332;55327;55325;55054
Hunter Councils Group	61131;61055;61406;61390
Greater Hume Shire Council	72101;61161;72085;72022;72037;72081;72002;72019;72142;72076
Forbes Shire Council	65016;65065;65104;50135;65039;65113;65103;60130;65114
Gwydir Shire Council	54004;54081;54090;54111;54039;54019;54014;54123;54106
Junee Shire Council	73019;73081;73116
Eurobodalla Shire Council	69033;69142;69018;69145;69042;69148;69038;69043
City of Parramatta Council	66046;67111;66124
Shoalhaven Illawarra Pilot Joint Organisation	68252;68242;68038
Border Regional Organisation of Councils (BROC)	54004;54081;54090;54111;54039;54019;54014;54123;54106
Riverina Water County Council	73127;72040;74114;72150;72151;74127;74241
Carrathool Shire Council	75139;75025
Temora Shire Council	73143;73151;74155;73038;73037
Western Sydney Regional Organisation of Councils (WSROC)	67059
Blacktown City Council	67059
Newcastle City Council	61131;61055;61406;61390
Yass Valley Council	70187;70028;70268;70091;70358;70345;70108
Woollahra Municipal Council	66098;66061;66037;66062;66195;66095;66212;66006
Hilltops Council	73138;73098;73035;73056;73139
Goldenfields Water County Council	73143;73151;74155;73038;73037
Council of the City of  Ryde	66213;66081
Fairfield City Council	67006;75143;67072;67005
City of Canada Bay Council	66098;66061;66037;66062;66195;66095;66212;66006
Upper Hunter County Council	61004;61018;61374;61053;61305;61192;61168
Cobar Shire Council	48034;48073;48059;48075;49037;48182;48162;48027;48210;48198;48115;48053;48114;48236;48030;48199;48207;48237;48096;49057;48244
Singleton Council	61232;61371;61397;61070;61275;61430
Council of the City of Sydney	66098;66061;66037;66062;66195;66095;66212;66006
Dubbo Regional Council	65069;51091;65012;65030;65106;65070;65037;65107;65008;65082;65092
Goulburn Mulwaree Council	70263;70152;70038;70071;70147;70055;70240;70041;70077;70139;70303;70285;70330;70271;70037;70210;70040
Mid-Coast Council	60013
Leeton Shire Council	74254;74062;74132;74007;74063
Hawkesbury City Council	67031;67054
Blue Mountains City Council	63039
Upper Hunter Shire Council	61089;61360;61363;61401;61365;61402;61069
Snowy Valleys Council	72047;72044;72046;72045;72149;72075
Walcha Council	57084;56225;57107;57119;56079;56077;57061;57109;56035;57105;56066;56234;57036;56067;56236;55131;56076;57053;56075;56071;56010
Strathfield Municipal Council	66070;55091
Orana Regional Organisation of Councils (OROC)	51037;51147;51115;51123;51152;50000;51005
Federation Council	74034;74096
Coonamble Shire Council	51053;51010;51161;51127;51001;51076;51056;51121;51140;51040
Upper Macquarie County Council	63187;63305;63190;63004;63306;63287;63005;63291
Warren Shire Council	51148;51013;51124;51054;51102;51034;51062;51025;51006
Maitland City Council	61388;61259;61035;61428;61268;61034;61207
Wentworth Shire Council	63092;47045;47105;47046;47053;47003;47093;47040;63227;47099;47089;47009;47078;47041
Kyogle Council	58146;58032
Queanbeyan-Palerang Regional Council	70101;70072;70202;70066
Tenterfield Shire Council	56059;57099;57025;56052;56046;56044;56194;56212;56039;56047;56050;56155;56032
Bega Valley Shire Council	69139;69002
